{
  "name": "article",
  "description": "文章",
  "base": "PersistedModel",
  "idInjection": true,
  "options": {
    "validateUpsert": true
  },
  "validations": [],
  "mixins": {
    "Timestamp": {}
  },
  "properties": {
    "title": {
      "type": "string",
      "required": true,
      "description": "标题"
    },
    "note": {
      "type": "string",
      "description": "说明"
    },
    "title": {
      "type": "string",
      "required": true,
      "description": "标题",
      "default": "不限"
    },
    "zone": {
      "type": "string",
      "required": true,
      "description": "发布位置"
    },
    "type": {
      "type": "string",
      "required": true,
      "description": "文章类型('静态链接' || '文本编辑')"
    },
    "content": {
      "type": "string",
      "description": "html('文本编辑'类型含有)"
    },
    "href": {
      "type": "string",
      "description": "超链接('静态链接'类型含有)"
    },
    "active": {
      "type": "boolean",
      "description": "是否在线上",
      "default": false
    },
    "top_at": {
      "type": "date",
      "default": "1970-01-01T00:00:00.000Z" ,
      "description": "目标Id"
    }
  },
  "relations": {
    "author": {
      "type": "belongsTo",
      "model": "articleAuthor",
      "foreignKey": "",
      "description": "发布者"
    },
    "album": {
      "type": "belongsTo",
      "model": "album",
      "foreignKey": "",
      "description": "所属专辑"
    },
    "thumnail": {
      "type": "hasOne",
      "model": "image",
      "description": "缩略图",
      "polymorphic": {
        "foreignKey": "imageableId",
        "discriminator": "imageableType"
      }
    },
    "tags": {
      "type": "hasMany",
      "model": "articleTag",
      "description": "标签",
      "through": "tagLink",
      "keyThrough": "tagId",
      "polymorphic": {
        "foreignKey": "tagableId",
        "discriminator": "tagableType"
      }
    }
  },
  "acls": [
    {
      "accessType": "*",
      "principalType": "ROLE",
      "principalId": "$everyone",
      "permission": "DENY"
    }
  ],
  "methods": {}
}