{
  "name": "item",
  "base": "PersistedModel",
  "idInjection": true,
  "options": {
    "validateUpsert": true
  },
  "mixins": {
    "Timestamp": {},
    "FetchComments": {
      "name": "item_comments",
      "ref": "itemId"
    }
  },
  "hidden": [
    "deleted"
  ],
  "properties": {
    "content": {
      "type": "string",
      "required": true,
      "description": "内容"
    },
    "thumbsups": {
      "type": "number",
      "default": 0
    },
    "views": {
      "type": "number",
      "default": 0
    },
    "tagString": {
      "type": "string"
    },
    "deleted": {
      "type": "boolean",
      "default": false
    },
    "highlight": {
      "type": "boolean",
      "default": false
    },
    "visible": {
      "type": "boolean",
      "default": true
    },
    "thumbsupUsers": {
      "type": "object"
    }
  },
  "validations": [],
  "relations": {
    "commenters": {
      "type": "hasMany",
      "model": "user",
      "foreignKey": "",
      "keyThrough": "userId",
      "through": "comment"
    },
    "images": {
      "type": "hasMany",
      "model": "image",
      "polymorphic": "imageable"
    },
    "tags": {
      "type": "hasMany",
      "model": "tag",
      "foreignKey": "itemId",
      "through": "tagitem",
      "keyThrough": "tagId"
    },
    "category": {
      "type": "belongsTo",
      "model": "category",
      "foreignKey": ""
    },
    "user": {
      "type": "belongsTo",
      "model": "user",
      "foreignKey": ""
    },
    "thumbsup_users": {
      "type": "hasMany",
      "model": "user",
      "foreignKey": "",
      "through": "thumbsup",
      "keyThrough": "userId"
    },
    "collectors": {
      "type": "hasMany",
      "model": "user",
      "foreignKey": "itemId",
      "through": "collection",
      "keyThrough": "itemId"
    },
    "comments": {
      "type": "hasMany",
      "model": "comment",
      "polymorphic": {
        "as": "commentable",
        "foreignKey": "instId",
        "discriminator": "instModel"
      }
    }
  },
  "acls": [
    {
      "accessType": "*",
      "principalType": "ROLE",
      "principalId": "$everyone",
      "permission": "DENY"
    },
    {
      "accessType": "EXECUTE",
      "principalType": "ROLE",
      "principalId": "$authenticated",
      "permission": "ALLOW",
      "property": "create"
    },
    {
      "accessType": "EXECUTE",
      "principalType": "ROLE",
      "principalId": "$everyone",
      "permission": "ALLOW",
      "property": "find"
    },
    {
      "accessType": "EXECUTE",
      "principalType": "ROLE",
      "principalId": "$everyone",
      "permission": "ALLOW",
      "property": "count"
    },
    {
      "accessType": "EXECUTE",
      "principalType": "ROLE",
      "principalId": "$everyone",
      "permission": "ALLOW",
      "property": "__get__images"
    },
    {
      "accessType": "EXECUTE",
      "principalType": "ROLE",
      "principalId": "$everyone",
      "permission": "ALLOW",
      "property": "__count__images"
    },
    {
      "accessType": "EXECUTE",
      "principalType": "ROLE",
      "principalId": "$everyone",
      "permission": "ALLOW",
      "property": "__get__tags"
    },
    {
      "accessType": "EXECUTE",
      "principalType": "ROLE",
      "principalId": "$authenticated",
      "permission": "ALLOW",
      "property": "publish"
    },
    {
      "accessType": "EXECUTE",
      "principalType": "ROLE",
      "principalId": "$everyone",
      "permission": "ALLOW",
      "property": "findById"
    },
    {
      "accessType": "EXECUTE",
      "principalType": "ROLE",
      "principalId": "$authenticated",
      "permission": "ALLOW",
      "property": "uptoken"
    },
    {
      "accessType": "EXECUTE",
      "principalType": "ROLE",
      "principalId": "$everyone",
      "permission": "ALLOW",
      "property": "__get__thumbsup_users"
    },
    {
      "accessType": "EXECUTE",
      "principalType": "ROLE",
      "principalId": "$everyone",
      "permission": "ALLOW",
      "property": "__count__collectors"
    },
    {
      "accessType": "EXECUTE",
      "principalType": "ROLE",
      "principalId": "$everyone",
      "permission": "ALLOW",
      "property": "search"
    },
    {
      "accessType": "EXECUTE",
      "principalType": "ROLE",
      "principalId": "$owner",
      "permission": "ALLOW",
      "property": "boom"
    },
    {
      "accessType": "EXECUTE",
      "principalType": "ROLE",
      "principalId": "$owner",
      "permission": "ALLOW",
      "property": "removeComment"
    },
    {
      "accessType": "EXECUTE",
      "principalType": "ROLE",
      "principalId": "$everyone",
      "permission": "ALLOW",
      "property": "item_comments"
    }
  ],
  "methods": {},
  "scope": {}
}
