{
  "name": "redemptionCode",
  "base": "PersistedModel",
  "idInjection": true,
  "options": {
    "validateUpsert": true
  },
  "mixins": {
    "Timestamp": {}
  },
  "properties": {
    "code": {
      "type": "string",
      "required": true,
      "index": {
        "unique": true
      },
      "description": "兑换码"
    },
    "used": {
      "type": "boolean",
      "required": true,
      "description": "是否已被使用",
      "default": false
    }
  },
  "validations": [],
  "acls": [
    {
      "accessType": "*",
      "principalType": "ROLE",
      "principalId": "$everyone",
      "permission": "DENY"
    }
  ],
  "methods": {}
}
