{
  "restApiRoot": "/api",
  "host": "0.0.0.0",
  "port": 3000,
  "remoting": {
    "context": false,
    "rest": {
      "normalizeHttpPath": false,
      "xml": false
    },
    "json": {
      "strict": false,
      "limit": "100kb"
    },
    "urlencoded": {
      "extended": true,
      "limit": "100kb"
    },
    "cors": false,
    "errorHandler": {
      "disableStackTrace": false
    }
  },
  "legacyExplorer": false,
  "submail": {
    "mail": {
      "appid": "10752",
      "appkey": "d8550e88f2abcf346c35670583742a01",
      "url": "https://api.submail.cn/mail/send",
      "from": "kf@fanacg.com",
      "to": "2605808421@qq.com"
    },
    "mobiledata": {
      "appid": "10081",
      "appkey": "9220e9ff4941c509388652a7e8f0fda9",
      "url": "https://api.submail.cn/mobiledata/charge.json"
    }
  },
  "qiniu": {
    "AK": "nsGL5Yo6AdB7GxiCsP_aUl5B8zqnIUVd9uXnZ2Xr",
    "SK": "zp0m1NoJ5x1tMLZ7dTe-JKRug7YyIcYTjGHUuUMQ",
    "bucketname": "zcm-dev",
    "imgBasic": "http://7xllzd.com2.z0.glb.qiniucdn.com/",
    "domain": "7xllzd.com2.z0.glb.qiniucdn.com"
  }
}
